…
# Reading the data

``` r
EMT <- vroom::vroom("input/Metabolomica_antes-despues_EMT.txt")

EMT <- janitor::clean_names(dat = EMT, 
                            case = "screaming_snake")
EMT<- EMT %>% filter(!is.na(BIOCHEMICAL))
EMT
```

    ## # A tibble: 683 x 40
    ##    BIOCHEMICAL SUPER_PATHWAY SUB_PATHWAY PLATFORM    RI  MASS CAS   PUBCHEM
    ##    <chr>       <chr>         <chr>       <chr>    <dbl> <dbl> <chr>   <dbl>
    ##  1 1,2-dipalm~ Lipid         Diacylglyc~ GC/MS    2638.  313. 4029~  9.99e4
    ##  2 dihydroxya~ Carbohydrate  Glycolysis~ GC/MS    1263   103  6214~  6.70e2
    ##  3 1,3-dipalm~ Lipid         Diacylglyc~ GC/MS    2637   371. <NA>   6.81e4
    ##  4 1-arachido~ Lipid         Lysolipid   LC/MS N~ 5731   500. <NA>  NA     
    ##  5 1-docosahe~ Lipid         Lysolipid   LC/MS P~ 5518   568. <NA>  NA     
    ##  6 1-docosape~ Lipid         Lysolipid   LC/MS P~ 5584   570. <NA>  NA     
    ##  7 1-heptadec~ Lipid         Lysolipid   LC/MS P~ 5750   510. 5093~ NA     
    ##  8 1-linoleoy~ Lipid         Lysolipid   LC/MS P~ 5574   520. <NA>   1.20e7
    ##  9 1-methylni~ Cofactors an~ Nicotinate~ LC/MS P~  688   137. 1005~ NA     
    ## 10 1-myristoy~ Lipid         Lysolipid   LC/MS P~ 5481   468. 2055~  4.61e5
    ## # ... with 673 more rows, and 32 more variables: KEGG <chr>, HMDB <chr>,
    ## #   A549_PARENTAL_1 <dbl>, A549_PARENTAL_2 <dbl>, A549_PARENTAL_3 <dbl>,
    ## #   A549_PARENTAL_4 <dbl>, A549_PARENTAL_5 <dbl>, A549_MESENCHYMAL_1 <dbl>,
    ## #   A549_MESENCHYMAL_2 <dbl>, A549_MESENCHYMAL_3 <dbl>,
    ## #   A549_MESENCHYMAL_4 <dbl>, A549_MESENCHYMAL_5 <dbl>,
    ## #   HCC827_PARENTAL_1 <dbl>, HCC827_PARENTAL_2 <dbl>, HCC827_PARENTAL_3 <dbl>,
    ## #   HCC827_PARENTAL_4 <dbl>, HCC827_PARENTAL_5 <dbl>,
    ## #   HCC827_MESENCHYMAL_1 <dbl>, HCC827_MESENCHYMAL_2 <dbl>,
    ## #   HCC827_MESENCHYMAL_3 <dbl>, HCC827_MESENCHYMAL_4 <dbl>,
…
``` r
#get list of metabolites differentially present
subset(A549, p.adj<.05 & abs(foldchange)>1.5)[,1]
```

    ## # A tibble: 99 x 1
    ##    BIOCHEMICAL                   
    ##    <chr>                         
    ##  1 1-arachidonoyl-GPE* (20:4)*   
    ##  2 2'-AMP                        
    ##  3 2'-deoxyguanosine             
    ##  4 2-eicosatrienoyl-GPC* (20:3)* 
    ##  5 2-hydroxyadipate              
    ##  6 2-hydroxypalmitate            
    ##  7 2-hydroxystearate             
    ##  8 2-linoleoyl-GPC* (18:2)*      
    ##  9 2-methylbutyroylcarnitine (C5)
    ## 10 2-myristoyl-GPC* (14:0)*      
    ## # ... with 89 more rows
…
``` r
#get list of metabolites differentially present
subset(HCC827, p.adj<.05 & abs(foldchange)>1.5)[,1]
```

    ## # A tibble: 77 x 1
    ##    BIOCHEMICAL                              
    ##    <chr>                                    
    ##  1 1-methyladenosine                        
    ##  2 1-palmitoyl-GPE (16:0)                   
    ##  3 10-heptadecenoate (17:1n7)               
    ##  4 2-hydroxyadipate                         
    ##  5 2-hydroxyglutarate                       
    ##  6 2-methylbutyroylcarnitine (C5)           
    ##  7 3-phosphoserine                          
    ##  8 5-methyltetrahydrofolate (5MeTHF)        
    ##  9 acetylcarnitine (C2)                     
    ## 10 adenosine 5'-diphosphoribose (ADP-ribose)
    ## # ... with 67 more rows
…
``` r
#get list of metabolites differentially present
subset(H358, p.adj<.05 & abs(foldchange)>1.5)[,1]
```

    ## # A tibble: 24 x 1
    ##    BIOCHEMICAL                   
    ##    <chr>                         
    ##  1 1-palmitoyl-GPI* (16:0)*      
    ##  2 1-stearoyl-GPI (18:0)         
    ##  3 2'-deoxyinosine               
    ##  4 acetyl-CoA                    
    ##  5 C-glycosyltryptophan*         
    ##  6 CDP-choline                   
    ##  7 citrulline                    
    ##  8 CMP                           
    ##  9 cysteine-glutathione disulfide
    ## 10 glycerol 2-phosphate          
    ## # ... with 14 more rows
…
